{
    "antifeatures": {
        "Ads": "Selles rakenduses on reklaame",
        "DisabledAlgorithm": "Sellel rakendusel on nõrk turvasignatuur",
        "KnownVuln": "Sellel rakendusel on tuntud turvanõrkus",
        "NSFW": "Selles rakenduses leidub sisu, mis pole sobilik kõikjal avaldamiseks",
        "NoSourceSince": "Lähtekood ei ole enam saadaval, uuendused ei ole enam võimalikud",
        "NonFreeAdd": "See rakendus edendab mitte-vabu laiendusi",
        "NonFreeAssets": "Selles rakenduses on mitte-vabu varasid",
        "NonFreeDep": "See rakendus sõltub teistest mitte-vabadest rakendustest",
        "NonFreeNet": "See rakendus kasutab või sõltub täielikult mitte-vabadest võrguteenustest",
        "Tracking": "See rakendus jälgib ja raporteerib su aktiivsusest",
        "UpstreamNonFree": "Ülesvoolu lähtekood ei ole täiesti vaba"
    },
    "app_categories": {
        "Connectivity": "Ühenduvus",
        "Development": "Arendus",
        "Games": "Mängud",
        "Graphics": "Graafika",
        "Internet": "Internet",
        "Money": "Raha",
        "Multimedia": "Multimeedia",
        "Navigation": "Navigeerimine",
        "Phone & SMS": "Telefon &amp; SMS",
        "Reading": "Lugemine",
        "Science & Education": "Teadus &amp; haridus",
        "Security": "Turvalisus",
        "Sports & Health": "Sport &amp; tervis",
        "System": "Süsteemihaldus",
        "Theming": "Teemad",
        "Time": "Aeg",
        "Writing": "Kirjutamine",
        "show_all_packages": "Kuva kõik %d rakendust"
    },
    "index": {
        "download_fdroid": "Laadi F-Droid alla",
        "gpg_signature": "PGP allkiri",
        "introduction": "F-Droid on android-platvormi leidlik VABA TARKVARA KATALOOG (Free and Open Source Software). See klient muudab seadmes värskenduste sirvimise, paigaldamise ja jälgimise lihtsaks.",
        "screenshot": "Ekraanitõmmis F-Droid'i Androidi rakendusest",
        "title": "Mis on F-Droid?"
    },
    "mirrors": {
        "cn": "Mandri-Hiina",
        "de": "Saksamaa",
        "indiana": "Indiana, USA",
        "se": "Rootsi",
        "tw": "Taiwan",
        "ua": "Ukraina"
    },
    "navigation": {
        "about": "Lähemalt meist",
        "apps": "Rakendused",
        "contribute": "Aita kaasa",
        "documentation": "Dokumendid",
        "edit_on_gitlab": "Muuda saiti GitLab'is",
        "forum": "Foorum",
        "issues": "Täiendused ja vead",
        "news": "Uudised",
        "translate_on_weblate": "Tõlgi Weblate'is"
    },
    "news": {
        "by": "autor",
        "newer_posts": "← Uuemad postitused",
        "older_posts": "Vanemad postitused →",
        "posted_on": "Postitatud {{ post_date }}"
    },
    "package": {
        "added_on": "Lisamise kuupäev {{ package_added_date }}",
        "anti_features": "Omadused, mis ei sobi",
        "anti_features_warning": "Sellel rakendusel on omadusi, mis sulle ei pruugi meeldida.",
        "author": "Autor",
        "build_log": "Kompileerimise logi",
        "build_metadata": "Kompileerimise metateave",
        "changelog": "Muudatuste logi",
        "donate": "Toeta",
        "download": "Lae alla {{ file_extension }}",
        "flattr": "Flattr",
        "gpg_signature": "PGP allkiri",
        "issue_tracker": "Vigade ja ettepanekute haldus",
        "liberapay": "Liberapay",
        "license": "Litsents",
        "minimum_android_version": "Selle versioon eeldab Android {{ android_version }}'t või uuemat versiooni.",
        "new_in_version": "Mida on uut versioonis {{ latest_version }}",
        "opencollective": "Open Collective",
        "package_icon_alt": "paigalduspaki ikoon",
        "package_screenshot_alt": "rakenduse kuvatõmmis",
        "packages": "Paigalduspakid",
        "permissions": "Õigused",
        "signed_by_developer": "See on kompileeritud ja allkirjastatud algse arendaja poolt.",
        "signed_by_fdroid": "See on kompileeritud ja allkirjastatud F-Droid'i poolt ning peab vastama <a href=\"{{ source_code_url }}\">sellele lähtekoodi pakitud versioonile</a>.",
        "source_code": "Lähtekood",
        "suggest_downloading_via_fdroid": "Selleks, et sul oleks valikut, siis oleme teinud APK failid siin allalaaditavaks. Kuid peaksid arvestama, et see on vähem turvaline viis paigaldusfaile alla laadida ning nii paigaldades saa ei sa teateid uuenduste kohta. Meie soovitame, et paigalda F-Droid'i klient ning kasuta seda.",
        "suggested": "meie soovitus",
        "translation": "Tõlge",
        "version_info": "<b>Versioon {{ package_version }}</b> ({{ package_version_code }})",
        "versions": "Versioonid",
        "website": "Veebisait"
    },
    "permissions": {
        "permdesc_acceptHandovers": "Võimaldab sel rakendusel jätkata kõnet, mida algatati teises rakenduses.",
        "permdesc_accessBackgroundLocation": "See rakendus pääseb alati ligi asukohateabele (ka siis, kui rakendus pole kasutusel).",
        "permdesc_accessCoarseLocation": "See rakendus saab rakenduse kasutamise ajal asukohateenuste kaudu teada teie ligikaudse asukoha. Selleks et rakendus saaks asukohateavet, peavad asukohateenused olema seadmes sisse lülitatud.",
        "permdesc_accessDrmCertificates": "Lubab rakendusel ette valmistada ja kasutada DRM-i sertifikaate. Tavarakenduste puhul ei tohiks see vajalik olla.",
        "permdesc_accessFineLocation": "See rakendus saab su täpse asukoha rakenduse töötamise ajal asukohateenuste kaudu teada. Selleks, et rakendus saaks asukohateavet, peavad asukohateenused olema seadmes sisse lülitatud. See võib suurendada akukasutust.",
        "permdesc_accessImsCallService": "Võimaldab rakendusel kasutada IMS-teenust kõnede tegemiseks ilma, et peaksite sekkuma.",
        "permdesc_accessLocationExtraCommands": "Võimaldab rakendusel juurde pääseda asukohapakkuja erikäskudele. See võib lubada rakendusel mõjutada GPS-i või muude asukohaallikate tööd.",
        "permdesc_accessNetworkConditions": "Lubab rakendusel kuulata võrgutingimuste teavet. Ei ole kunagi vajalik tavarakenduste puhul.",
        "permdesc_accessNetworkState": "Lubab rakendusel vaadata teavet võrguühenduste kohta, näiteks seda, millised võrgud on olemas ja ühendatud.",
        "permdesc_accessNotifications": "Võimaldab rakendusel laadida, kontrollida ja kustutada märguandeid, sealhulgas neid, mille on postitanud teised rakendused.",
        "permdesc_accessWifiState": "Võimaldab rakendusel vaadata teavet WiFi-võrgu kohta, näiteks seda, kas WiFi on lubatud või ühendatud WiFi-seadmete nimesid.",
        "permdesc_accessWimaxState": "Võimaldab rakendusel määrata, kas WiMAX on lubatud, ja vaadata teavet kõikide ühendatud WiMAX-võrkude kohta.",
        "permdesc_access_notification_policy": "Võimaldab rakendusel lugeda ja kirjutada funktsiooni „Ära sega“ seadistusi.",
        "permdesc_activityRecognition": "See rakendus saab tuvastada teie füüsilisi tegevusi.",
        "permdesc_addVoicemail": "Võimaldab rakendusel lisada sõnumeid teie kõneposti postkasti.",
        "permdesc_answerPhoneCalls": "Lubab rakendusel vastata sissetulevale telefonikõnele.",
        "permdesc_audioWrite": "Võimaldab rakendusel muuta teie muusikakogu.",
        "permdesc_backgroundCamera": "See rakendus saab kaameraga pildistada ja videoid salvestada mis tahes ajal.",
        "permdesc_bindCarrierMessagingService": "Lubab omanikul luua seose operaatori sõnumisideteenuse ülataseme liidesega. Pole kunagi vajalik tavalise rakenduse puhul.",
        "permdesc_bindCarrierServices": "Lubab omanikul siduda operaatoriteenustega. Seda ei tohiks tavarakenduste puhul kunagi tarvis minna.",
        "permdesc_bindCellBroadcastService": "Võimaldab rakendusel luua ühenduse kärjeteadete mooduliga, et saabunud kärjeteateid edasi saata. Kärjeteateid edastatakse mõnes asukohas eriolukorrast teavitamiseks. Pahatahtlikud rakendused võivad seadme toimivust või tööd eriolukorra kärjeteate vastuvõtmisel segada.",
        "permdesc_bindConditionProviderService": "Lubab omanikul siduda tingimuse pakkuja teenuse ülataseme liidesega. Pole kunagi vajalik tavaliste rakenduste puhul.",
        "permdesc_bindDreamService": "Lubab omanikul siduda uneteenuse ülataseme liidesega. Tavarakenduste puhul ei peaks seda kunagi vaja minema.",
        "permdesc_bindNotificationListenerService": "Võimaldab omanikul siduda märguannete kuulamisteenuse ülemise taseme kasutajaliidese. Seda ei tohiks tavarakenduste puhul kunagi vaja olla.",
        "permdesc_bind_connection_service": "Võimaldab rakendusel telefoniteenustega kõnede tegemiseks ja vastuvõtmiseks suhelda.",
        "permdesc_bind_incall_service": "Lubab rakendusel juhtida, millal ja kuidas kasutajale kuvatakse „Kõne pooleli“ vaade.",
        "permdesc_bluetooth": "Võimaldab rakendusel vaadata telefoni Bluetooth-seadistusi ning luua ja heaks kiita ühendusi seotud seadmetega.",
        "permdesc_bluetoothAdmin": "Võimaldab rakendusel seadistada kohalikku Bluetooth-telefoni ning leida ja siduda seda kaugseadmetega.",
        "permdesc_bluetooth_advertise": "Lubab rakendusel läheduses olevatele Bluetooth-seadmetele endast teada anda",
        "permdesc_bluetooth_connect": "Lubab rakendusel luua ühenduse paardunud Bluetooth-seadmetega",
        "permdesc_bluetooth_scan": "Lubab rakendusel tuvastada lähedalasuvaid Bluetooth-seadmeid ja nendega paarduda",
        "permdesc_bodySensors": "Lubab rakendusel hankida juurdepääsu andmetele anduritest, mis jälgivad teie füüsilist seisundit, näiteks südame löögisagedust.",
        "permdesc_broadcastSticky": "Võimaldab rakendusel saata püsivaid edastusi, mis jäävad pärast saate lõppemist alles. Ülemäärane kasutamine võib muuta telefoni aeglaseks või ebastabiilseks, põhjustades selle liiga suure mälukasutuse.",
        "permdesc_callCompanionApp": "Lubab rakendusel seadmes vaadata ja juhtida käimasolevaid kõnesid. See hõlmab sellist teavet nagu kõnede numbrid ja olek.",
        "permdesc_callPhone": "Võimaldab rakendusel teie sekkumiseta telefoninumbritele helistada. See võib põhjustada ootamatuid tasusid või telefonikõnesid. Pange tähele, et see ei luba rakendusel helistada hädaabinumbritele. Pahatahtlikud rakendused võivad teile kulusid tekitada, tehes telefonikõnesid teie kinnituseta.",
        "permdesc_camera": "See rakendus saab kaameraga pildistada ja videoid salvestada siis, kui rakendus on kasutusel.",
        "permdesc_cameraOpenCloseListener": "See rakendus saab mis tahes kaameraseadme avamisel (vastava rakendusega) või sulgemisel tagasikutseid vastu võtta.",
        "permdesc_changeNetworkState": "Võimaldab rakendusel muuta võrguühenduvuse olekut.",
        "permdesc_changeTetherState": "Võimaldab rakendusel muuta jagatud võrgu ühenduvuse olekut.",
        "permdesc_changeWifiMulticastState": "Võimaldab rakendusel vastu võtta pakette, mis on saadetud kõikidele WiFi-võrguga ühendatud seadmetele, mis kasutavad multiedastuse aadresse, mitte ainult teie telefoni. See võtab rohkem energiat kui mittemultiedastuse režiim.",
        "permdesc_changeWifiState": "Võimaldab rakendusel luua ja katkestada ühenduse WiFi-pääsupunktidega ning teha muudatusi nutiseadme WiFi-võrkude konfiguratsioonis.",
        "permdesc_changeWimaxState": "Võimaldab rakendusel luua ja katkestada telefoni ühenduse WiMAX-i võrkudega.",
        "permdesc_connection_manager": "Lubab rakendusel hallata telekommunikatsiooni ühendusi.",
        "permdesc_control_incall_experience": "Lubab rakendusel pakkuda kasutuskogemust funktsiooni „Kõne pooleli“ kasutamisel.",
        "permdesc_createNetworkSockets": "Võimaldab rakendusel luua võrgupesasid ja kasutada kohandatud võrguprotokolle. Brauser ja teised rakendused annavad vahendid andmete saatmiseks internetti, nii et seda luba ei ole vaja andmete saatmiseks internetti.",
        "permdesc_disableKeyguard": "Võimaldab rakendusel keelata klahviluku ja muu salasõnadega seotud turvalisuse. Näiteks keelab telefon klahviluku sissetuleva kõne vastuvõtmisel ja lubab klahviluku uuesti, kui kõne on lõpetatud.",
        "permdesc_enableCarMode": "Võimaldab rakendusel autorežiimi lubada.",
        "permdesc_exemptFromAudioRecordRestrictions": "Vabastage rakendus heli salvestamise piirangutest.",
        "permdesc_expandStatusBar": "Võimaldab rakendusel laiendada või ahendada olekuriba.",
        "permdesc_foregroundService": "Lubab rakendusel kasutada esiplaanil olevaid teenuseid.",
        "permdesc_fullScreenIntent": "Lubab rakendusel märguandeid lukustatud seadmes täisekraantegevustena kuvada",
        "permdesc_getAccounts": "Võimaldab rakendusel hankida telefonile teadaolevaid kontoloendeid. See võib hõlmata mis tahes kontosid, mille on loonud teie paigaldatud rakendused.",
        "permdesc_getPackageSize": "Võimaldab rakendusel laadida oma koodi, andmed ja vahemälu suuruseid",
        "permdesc_getTasks": "Võimaldab rakendusel laadida teavet praegu ja hiljuti käitatud ülesannete kohta. See võib lubada rakendusel avastada teavet selle kohta, milliseid rakendusi seadmes kasutatakse.",
        "permdesc_handoverStatus": "Lubab rakendusel saada teavet hetkel toimuvate Android Beami ülekannete kohta",
        "permdesc_highSamplingRateSensors": "Võimaldab rakendusel anduri andmeid diskreetida sagedusel, mis on suurem kui 200 Hz",
        "permdesc_imagesWrite": "Võimaldab rakendusel muuta teie fotokogu.",
        "permdesc_install_shortcut": "Võimaldab rakendusel lisada viiteid avaekraanile ilma kasutaja sekkumiseta.",
        "permdesc_invokeCarrierSetup": "Võimaldab kasutajal käivitada sideteenuse pakkuja lisatud konfiguratsioonirakendust. Tavaliste rakenduste jaoks ei tohiks seda kunagi vaja minna.",
        "permdesc_killBackgroundProcesses": "Võimaldab rakendusel lõpetada teiste rakenduste taustprotsesside töö. See võib põhjustada teiste rakenduste peatamise.",
        "permdesc_manageFace": "Lubab rakendusel tühistada meetodeid kasutatavate näomallide lisamiseks ja kustutamiseks.",
        "permdesc_manageFingerprint": "Võimaldab rakendusel tühistada meetodeid kasutatavate sõrmejäljemallide lisamiseks ja kustutamiseks.",
        "permdesc_manageNetworkPolicy": "Võimaldab rakendusel hallata võrgueeskirju ja määratleda rakendusespetsiifilisi reegleid.",
        "permdesc_manageOngoingCalls": "Võimaldab rakendusel näha sinu seadmes käimasolevate kõnede üksikasju ja neid kõnesid hallata.",
        "permdesc_manageOwnCalls": "Võimaldab rakendusel kõnesid süsteemi kaudu marsruutida, et helistamiskogemust täiustada.",
        "permdesc_manageProfileAndDeviceOwners": "Võimaldab rakendustel määrata profiiliomanikud ja seadmeomaniku.",
        "permdesc_mediaLocation": "Võimaldab rakendusel lugeda teie meediakogus olevaid asukohti.",
        "permdesc_modifyAudioSettings": "Võimaldab rakendusel muuta üldiseid heliseadeid, näiteks helitugevust ja seda, millist kõlarit kasutatakse väljundiks.",
        "permdesc_modifyNetworkAccounting": "Võimaldab rakendusel muuta võrgukasutuse loendamist rakenduste suhtes. Ei ole mõeldud kasutamiseks tavarakenduste puhul.",
        "permdesc_nfc": "Võimaldab rakendusel suhelda lähiväljaside (NFC) siltide, kaartide ja lugeritega.",
        "permdesc_persistentActivity": "Võimaldab rakendusel muuta oma osi mälus püsivaks. See võib piirata teistele (telefoni aeglasemaks muutvatele) rakendustele saadaolevat mälu.",
        "permdesc_preferredPaymentInfo": "Võimaldab rakendusel hankida eelistatud NFC-makseteenuse teavet (nt registreeritud abi ja marsruudi sihtkoht).",
        "permdesc_processOutgoingCalls": "Lubab rakendusel näha, mis number valitakse väljahelistamisel, ning laseb suunata kõne teisele numbrile või selle üldse katkestada.",
        "permdesc_queryAllPackages": "Võimaldab rakendusel näha kõiki paigaldatud pakette.",
        "permdesc_readCalendar": "See rakendus saab kõiki teie telefoni salvestatud kalendrisündmusi lugeda ja teie kalendriandmeid jagada või salvestada.",
        "permdesc_readCallLog": "See rakendus saab teie kõneajalugu lugeda.",
        "permdesc_readCellBroadcasts": "Võimaldab rakendusel lugeda seadme vastu võetud tugijaamade süsteemseid mobiilsidesõnumeid. Mobiilsidemärguandeid edastatakse mõnes asukohas eriolukorrast teavitamiseks. Pahatahtlikud rakendused võivad segada seadme toimivust või tööd eriolukorra sõnumi vastuvõtmisel.",
        "permdesc_readContacts": "Lubab rakendusel lugeda telefoni salvestatud kontaktide andmeid. Rakendustel on ka juurdepääs teie telefonis olevatele kontodele, millel on loodud kontakte. See võib hõlmata kontosid, mille lõid teie installitud rakendused. See luba võimaldab rakendustel salvestada teie kontaktandmeid ja pahatahtlikud rakendused võivad teie teadmata kontaktandmeid jagada.",
        "permdesc_readHistoryBookmarks": "Võimaldab rakendusel lugeda kõikide URL-ide ajalugu, mida brauseris on külastatud ja kõiki brauseri järjehoidjaid. Märkus: see luba ei pruugi kehtida kolmanda osapoole brauserite või teiste veebisirvimisvõimega rakenduste puhul.",
        "permdesc_readInstallSessions": "Lubab rakendusel lugeda paigaldusseansse. See võimaldab näha aktiivse paketi paigaldamise üksikasju.",
        "permdesc_readNetworkUsageHistory": "Võimaldab rakendusel lugeda teatud võrkude ja rakenduste võrgukasutuse ajalugu.",
        "permdesc_readPhoneNumbers": "Rakendusel lubatakse juurdepääs nutiseadme telefoninumbritele.",
        "permdesc_readPhoneState": "Annab rakendusele juurdepääsu seadme telefonifunktsioonidele. See luba võimaldab rakendusel määrata telefoninumbri ja seadme ID-d ning kontrollida, kas kõne on aktiivne ja kaugnumber on kõne kaudu telefoniga ühendatud.",
        "permdesc_readSms": "See rakendus saab kõiki teie telefoni salvestatud SMS-e (tekstsõnumeid) lugeda.",
        "permdesc_readSyncSettings": "Võimaldab rakendusel lugeda konto sünkroonimisseadeid. Näiteks võib see määrata, kas rakendus Inimesed on kontoga sünkroonitud.",
        "permdesc_readSyncStats": "Võimaldab rakendusel lugeda konto sünkroonimisstatistikat, sh sünkroonimissündmuste ajalugu ja sünkroonitud andmete kogust.",
        "permdesc_receiveBootCompleted": "Võimaldab rakendusel käivituda ise kohe, kui süsteem on käivitunud. See võib telefoni käivitamist aeglustada ja lubab rakendusel muuta telefoni ka üldiselt aeglasemaks, kuna töötab pidevalt.",
        "permdesc_receiveMms": "Võimaldab rakendusel vastu võtta ja töödelda multimeediumsõnumeid. See tähendab, et rakendus võib jälgida või kustutada teie seadmele saadetud sõnumeid neid teile näitamata.",
        "permdesc_receiveSms": "Võimaldab rakendusel vastu võtta ja töödelda SMS-sõnumeid. See tähendab, et rakendus võib jälgida või kustutada teie seadmele saadetud sõnumeid neid teile näitamata.",
        "permdesc_receiveWapPush": "Võimaldab rakendusel vastu võtta ja töödelda WAP-sõnumeid. See luba hõlmab võimet jälgida või kustutada teile saadetud sõnumeid neid teile näitamata.",
        "permdesc_recordAudio": "See rakendus saab mikrofoniga heli salvestada siis, kui rakendus on kasutusel.",
        "permdesc_recordBackgroundAudio": "See rakendus saab mikrofoniga heli salvestada mis tahes ajal.",
        "permdesc_register_call_provider": "Lubab rakendusel registreerida uusi telekommunikatsiooni ühendusi.",
        "permdesc_register_sim_subscription": "Lubab rakendusel registreerida uusi telekommunikatsiooni SIM-kaartide ühendusi.",
        "permdesc_removeDrmCertificates": "Lubab rakendusel eemaldada DRM-sertifikaate. Pole kunagi vajalik tavarakenduste puhul.",
        "permdesc_reorderTasks": "Võimaldab rakendusel teisaldada teisi rakendusi ja ülesandeid esiplaanile ja taustale. Rakendus võib seda teha teie osaluseta.",
        "permdesc_requestDeletePackages": "Võimaldab rakendusel taotleda paigalduspakettide kustutamist.",
        "permdesc_requestIgnoreBatteryOptimizations": "Lubab rakendusel küsida luba rakenduse aku optimeerimise eiramiseks.",
        "permdesc_requestInstallPackages": "Võimaldab rakendusel pakettide paigaldamist taotleda.",
        "permdesc_requestPasswordComplexity": "Lubab rakendusel vaadata ekraaniluku keerukuse taset (kõrge, keskmine, madal või puudub), mis näitab ekraaniluku võimalikku pikkust ja tüüpi. Rakendus võib kasutajatele soovitada ka ekraaniluku viimist teatud tasemele, kuid kasutajad võivad seda eirata ja kuvalt lahkuda. Pange tähele, et ekraanilukku ei salvestata lihttekstina, seega ei tea rakendus kasutaja täpset salasõna.",
        "permdesc_route_media_output": "Võimaldab rakendusel suunata meediaväljundit teistesse välistesse seadmetesse.",
        "permdesc_runInBackground": "Seda rakendust saab kasutada taustal. See võib kiiremini akut kulutada.",
        "permdesc_sdcardRead": "Lubab rakendusel lugeda jagatud salvestusruumi sisu.",
        "permdesc_sdcardWrite": "Lubab rakendusel kirjutada jagatud salvestusruumi sisu.",
        "permdesc_sendSms": "Võimaldab rakendusel saata SMS-sõnumeid. See võib kaasa tuua ootamatuid tasusid. Pahatahtlikud rakendused võivad teile tekitada kulusid, saates sõnumeid teie kinnituseta.",
        "permdesc_setAlarm": "Võimaldab rakendusel seada installitud äratuskellarakenduses äratuse. Mõned äratuskellarakendused ei pruugi seda funktsiooni kasutada.",
        "permdesc_setInputCalibration": "Lubab rakendusel muuta puuteekraani kalibreerimisparameetreid. Ei tohiks kunagi olla vajalik tavarakenduste puhul.",
        "permdesc_setTimeZone": "Võimaldab rakendusel muuta telefoni ajavööndit.",
        "permdesc_setWallpaper": "Võimaldab rakendusel määrata süsteemi taustapildi.",
        "permdesc_setWallpaperHints": "Võimaldab rakendusel määrata süsteemi taustapildi suuruse vihjeid.",
        "permdesc_sim_communication": "Lubab rakendusel saata käske SIM-kaardile. See on väga ohtlik.",
        "permdesc_startViewPermissionUsage": "Võimaldab omanikul võtta kasutusele rakenduse õiguste süsteemi. Tavaliste rakenduste jaoks ei tohiks seda kunagi vaja minna.",
        "permdesc_statusBar": "Võimaldab rakendusel olekuriba keelata või süsteemiikoone lisada ja eemaldada.",
        "permdesc_statusBarService": "Võimaldab rakendusel olla olekuriba.",
        "permdesc_subscribedFeedsRead": "Võimaldab rakendusel saada teavet parajasti sünkroonitud uudisvoogude kohta.",
        "permdesc_systemAlertWindow": "See rakendus võidakse kuvada teiste rakenduste või muude ekraani osade peal. See võib häirida tavapärast rakenduste kasutust ja muuta seda, kuidas teisi rakendusi kuvatakse.",
        "permdesc_systemCamera": "See privileegidega või süsteemirakendus saab süsteemi kaameraga alati pilte ja videoid jäädvustada. Rakendusel peab olema ka luba android.permission.CAMERA",
        "permdesc_transmitIr": "Lubab rakendusel kasutada telefoni infrapunasaatjat.",
        "permdesc_uninstall_shortcut": "Lubab rakendusel eemaldada avavaate otseteid ilma kasutaja sekkumiseta.",
        "permdesc_useBiometric": "Võimaldab rakendusel autentimiseks kasutada biomeetrilist riistvara",
        "permdesc_useDataInBackground": "See rakendus saab andmeid taustal kasutada. See võib suurendada andmekasutust.",
        "permdesc_useFaceAuthentication": "Võimaldab rakendusel autentimiseks kasutada Face Unlocki riistvara",
        "permdesc_useFingerprint": "Võimaldab rakendusel autentimiseks kasutada sõrmejälje lugemise riistvara",
        "permdesc_use_sip": "Lubab rakendusel teha ja vastu võtta SIP-kõnesid.",
        "permdesc_uwb_ranging": "Võimaldab rakendusel määrata lähedalasuvate ülilairibaühendust kasutavate seadmete suhtelise kauguse üksteisest",
        "permdesc_vibrate": "Võimaldab rakendusel juhtida vibreerimist.",
        "permdesc_vibrator_state": "Võimaldab rakendusel juurde pääseda vibreerimise olekule.",
        "permdesc_videoWrite": "Võimaldab rakendusel muuta teie videokogu.",
        "permdesc_wakeLock": "Võimaldab rakendusel vältida telefoni uinumist.",
        "permdesc_writeCalendar": "See rakendus võib teie telefoni kalendrisündmusi lisada, neid eemaldada või muuta. See rakendus võib saata sõnumeid, mis näivad pärinevat kalendri omanikelt, või muuta sündmusi ilma omanikke teavitamata.",
        "permdesc_writeCallLog": "Lubab rakendusel muuta telefoni kõnelogi, sealhulgas sissetulevate ja väljaminevate kõnede andmeid. Pahatahtlikud rakendused võivad kasutada seda kõnelogi kustutamiseks või muutmiseks.",
        "permdesc_writeContacts": "Lubab rakendusel muuta telefoni salvestatud kontaktide andmeid. See luba võimaldab rakendustel kontaktandmeid kustutada.",
        "permdesc_writeGeolocationPermissions": "Võimaldab rakendusel muuta veebibrauseri geolokatsiooniõigusi. Pahatahtlikud rakendused võivad seda kasutada asukohateabe saatmise lubamiseks suvalistele veebisaitidele.",
        "permdesc_writeHistoryBookmarks": "Võimaldab rakendusel muuta telefonis salvestatud veebibrauseri ajalugu või järjehoidjaid. See võimaldab rakendusel kustutada või muuta veebibrauseri andmeid. Märkus: see luba ei pruugi jõustuda kolmanda osapoole veebibrauserites või teistes veebisirvimisvõimega rakendustes.",
        "permdesc_writeSettings": "Võimaldab rakendusel muuta süsteemiseadete andmeid. Pahatahtlikud rakendused võivad rikkuda teie süsteemi konfiguratsiooni.",
        "permdesc_writeSyncSettings": "Võimaldab rakendusel muuta konto sünkroonimisseadeid. Näiteks saab seda kasutada, et lubada rakenduse Inimesed andmete sünkroonimist võrgukontoga.",
        "permgroupbackgroundrequest_location": "Luba rakendusel taustaolekus tuvastada sinu asukohta.",
        "permgroupbackgroundrequestdetail_location": "Hetkel see rakendus saab teha kindlaks sinu asukohta vaid tema kasutamise ajal",
        "permgroupdesc_activityRecognition": "juurdepääs teie füüsilisele tegevusele",
        "permgroupdesc_calendar": "juurdepääs kalendrile",
        "permgroupdesc_calllog": "telefoni kõnelogi lugemine ja kirjutamine",
        "permgroupdesc_camera": "pildistamine ja video salvestamine",
        "permgroupdesc_contacts": "juurdepääs kontaktidele",
        "permgroupdesc_location": "juurdepääs selle seadme asukohale",
        "permgroupdesc_microphone": "heli salvestamine",
        "permgroupdesc_nearby_devices": "avastada lähedalasuvaid seadmeid ja luua nendega ühenduse",
        "permgroupdesc_phone": "helistamine ja telefonikõnede haldamine",
        "permgroupdesc_sensors": "juurdepääs andurite andmetele teie eluliste näitajate kohta",
        "permgroupdesc_sms": "saata ja vaadata SMS-sõnumeid",
        "permgroupdesc_storage": "juurdepääs seadmesse salvestatud fotodele, meediasisule ja failidele",
        "permgrouplab_activityRecognition": "Füüsiline tegevus",
        "permgrouplab_calendar": "Kalender",
        "permgrouplab_calllog": "Kõnelogid",
        "permgrouplab_camera": "Kaamera",
        "permgrouplab_contacts": "Kontaktid",
        "permgrouplab_location": "Asukoht",
        "permgrouplab_microphone": "Mikrofon",
        "permgrouplab_nearby_devices": "Lähedalasuvad seadmed",
        "permgrouplab_phone": "Telefon",
        "permgrouplab_sensors": "Kehaandurid",
        "permgrouplab_sms": "SMS-sõnumid",
        "permgrouplab_storage": "Failid ja meedia",
        "permgrouprequest_activityRecognition": "Luba rakendusel jälgida sinu tegevust.",
        "permgrouprequest_calendar": "Luba <b></b>",
        "permgrouprequest_calllog": "Luba <b></b>",
        "permgrouprequest_camera": "Luba <b></b>",
        "permgrouprequest_contacts": "Luba <b></b>",
        "permgrouprequest_location": "Luba <b></b>",
        "permgrouprequest_microphone": "Luba <b></b>",
        "permgrouprequest_phone": "Luba <b></b>",
        "permgrouprequest_sensors": "Luba <b></b>",
        "permgrouprequest_sms": "Luba <b></b>",
        "permgrouprequest_storage": "Luba <b></b>",
        "permgrouprequestdetail_location": "Rakendusel on ligipääs sinu asukohale vaid selle kasutamise ajal",
        "permission_request_notification_for_app_with_subtitle": "Rakendus",
        "permlab_acceptHandover": "jätka kõnet teises rakenduses",
        "permlab_accessBackgroundLocation": "juurdepääs asukohale taustal",
        "permlab_accessCoarseLocation": "juurdepääs ligikaudsele asukohale ainult esiplaanil",
        "permlab_accessDrmCertificates": "juurdepääs DRM-i sertifikaatidele",
        "permlab_accessFineLocation": "juurdepääs täpsele asukohale ainult esiplaanil",
        "permlab_accessImsCallService": "juurdepääs IMS kõneteenusele",
        "permlab_accessLocationExtraCommands": "juurdepääs asukohapakkuja lisakäskudele",
        "permlab_accessNetworkConditions": "võrgutingimuste teabe kuulamine",
        "permlab_accessNetworkState": "võrguühenduste vaatamine",
        "permlab_accessNotifications": "juurdepääsu märguanded",
        "permlab_accessWifiState": "WiFi-ühenduste vaatamine",
        "permlab_accessWimaxState": "WiMAX-iga ühenduse loomine ja ühenduse katkestamine",
        "permlab_access_notification_policy": "juurdepääs funktsioonile „Ära sega“",
        "permlab_activityRecognition": "füüsiliste tegevuste tuvastamine",
        "permlab_addVoicemail": "kõneposti lisamine",
        "permlab_answerPhoneCalls": "telefonikõnedele vastamine",
        "permlab_audioWrite": "muusikakogu muutmine",
        "permlab_backgroundCamera": "taustal pildistamine ja videote salvestamine",
        "permlab_bindCarrierMessagingService": "seose loomine operaatori sõnumisideteenusega",
        "permlab_bindCarrierServices": "sidumine operaatoriteenustega",
        "permlab_bindCellBroadcastService": "Kärjeteadete edasisaatmine",
        "permlab_bindConditionProviderService": "sidumine tingimustepakkuja teenusega",
        "permlab_bindDreamService": "sidumine uneteenusega",
        "permlab_bindNotificationListenerService": "sidumine märguannete kuulamisteenusega",
        "permlab_bind_connection_service": "telefoniteenustega suhtlemine",
        "permlab_bind_incall_service": "ekraanivaate „Kõne pooleli“ kasutamine",
        "permlab_bluetooth": "sidumine Bluetoothi seadmetega",
        "permlab_bluetoothAdmin": "juurdepääs Bluetoothi seadetele",
        "permlab_bluetooth_advertise": "lähedalolevatele Bluetooth-seadmetele enda nähtavaks tegemine",
        "permlab_bluetooth_connect": "paardunud Bluetooth-seadmetega ühenduse loomine",
        "permlab_bluetooth_scan": "lähedalasuvate Bluetooth-seadmete tuvastamine ja nendega paardumine",
        "permlab_bodySensors": "juurdepääs kehaanduritele (näiteks pulsilugeja)",
        "permlab_broadcastSticky": "kleepsaate lähetamine",
        "permlab_callCompanionApp": "süsteemi kaudu kõnede vaatamine ja juhtimine.",
        "permlab_callPhone": "otse telefoninumbritele helistamine",
        "permlab_camera": "pildistamine ja videosalvestus",
        "permlab_cameraOpenCloseListener": "Lubab rakendusel või teenusel kaameraseadmete avamise või sulgemise kohta tagasikutseid vastu võtta.",
        "permlab_changeNetworkState": "võrguühenduvuse muutmine",
        "permlab_changeTetherState": "Jagatud ühenduvuse muutmine",
        "permlab_changeWifiMulticastState": "luba WiFi multiedastusvastuvõtt",
        "permlab_changeWifiState": "WiFi-ühenduse loomine ja katkestamine",
        "permlab_changeWimaxState": "WiMAX-i oleku muutmine",
        "permlab_connection_manager": "telekommunikatsiooniühenduste haldamine",
        "permlab_control_incall_experience": "funktsiooni „Kõne pooleli“ kasutuskogemuse pakkumine",
        "permlab_createNetworkSockets": "täielik juurdepääs võrgule",
        "permlab_disableKeyguard": "ekraaniluku keelamine",
        "permlab_enableCarMode": "autorežiimi lubamine",
        "permlab_exemptFromAudioRecordRestrictions": "vabastus heli salvestamise piirangutest",
        "permlab_expandStatusBar": "olekuriba laiendamine/ahendamine",
        "permlab_foregroundService": "esiplaanil olevat teenuse käitamine",
        "permlab_fullScreenIntent": "kuva märguanded lukustatud seadmes täisekraantegevustena",
        "permlab_getAccounts": "seadmest kontode otsimine",
        "permlab_getPackageSize": "rakenduse mäluruumi mõõtmine",
        "permlab_getTasks": "käitatud rakenduste toomine",
        "permlab_handoverStatus": "Android Beami ülekande oleku vastuvõtmine",
        "permlab_highSamplingRateSensors": "juurdepääs anduri andmetele kõrgel diskreetimissagedusel",
        "permlab_imagesWrite": "teie fotokogu muutmine",
        "permlab_install_shortcut": "paigalda otseteed",
        "permlab_invokeCarrierSetup": "käivita sideteenuse pakkuja lisatud konfiguratsioonirakendus",
        "permlab_killBackgroundProcesses": "teiste rakenduste sulgemine",
        "permlab_manageFace": "hallata Face Unlocki riistvara",
        "permlab_manageFingerprint": "sõrmejäljetuvastusraudvara haldamine",
        "permlab_manageNetworkPolicy": "võrgueeskirjade haldamine",
        "permlab_manageOngoingCalls": "Käimasolevate kõnede haldamine",
        "permlab_manageOwnCalls": "kõnede marsruutimine süsteemi kaudu",
        "permlab_manageProfileAndDeviceOwners": "profiilide ja seadme omanike haldamine",
        "permlab_mediaLocation": "teie meediakogus olevate asukohtade lugemine",
        "permlab_modifyAudioSettings": "heliseadistuste muutmine",
        "permlab_modifyNetworkAccounting": "võrgukasutuse arvestamise muutmine",
        "permlab_nfc": "lähiväljaside juhtimine",
        "permlab_persistentActivity": "rakenduste pidev tööshoidmine",
        "permlab_preferredPaymentInfo": "Eelistatud NFC-makseteenuse teave",
        "permlab_processOutgoingCalls": "väljuvate kõnede ümbersuunamine",
        "permlab_queryAllPackages": "päringute esitamine kõikide pakettide kohta",
        "permlab_readCalendar": "kalendrisündmuste ja nende detailse teabe lugemine",
        "permlab_readCallLog": "kõnelogi lugemine",
        "permlab_readCellBroadcasts": "mobiilsidesõnumite lugemine",
        "permlab_readContacts": "teie kontaktide lugemine",
        "permlab_readHistoryBookmarks": "veebijärjehoidjate ja -ajaloo lugemine",
        "permlab_readInstallSessions": "paigaldusseansside lugemine",
        "permlab_readNetworkUsageHistory": "võrgukasutuse ajaloo lugemine",
        "permlab_readPhoneNumbers": "telefoninumbrite lugemine",
        "permlab_readPhoneState": "telefoni oleku ja identiteedi lugemine",
        "permlab_readSms": "teie SMS- ja MMS-sõnumite lugemine",
        "permlab_readSyncSettings": "sünkroonimisseadistuste lugemine",
        "permlab_readSyncStats": "sünkroonimisstatistika lugemine",
        "permlab_receiveBootCompleted": "käivitamine seadme käivitumisel",
        "permlab_receiveMms": "MMS-sõnumite vastuvõtmine",
        "permlab_receiveSms": "SMS-sõnumite vastuvõtmine",
        "permlab_receiveWapPush": "WAP-sõnumite vastuvõtmine",
        "permlab_recordAudio": "heli salvestamine",
        "permlab_recordBackgroundAudio": "taustal heli salvestamine",
        "permlab_register_call_provider": "uute telekommunikatsiooniühenduste registreerimine",
        "permlab_register_sim_subscription": "uute telekommunikatsiooni SIM-kaardi ühenduste registreerimine",
        "permlab_removeDrmCertificates": "DRM-sertifikaatide eemaldamine",
        "permlab_reorderTasks": "töötavate rakenduste ümberjärjestamine",
        "permlab_requestDeletePackages": "pakettide kustutamise taotlemine",
        "permlab_requestIgnoreBatteryOptimizations": "küsida luba aku optimeerimise eiramiseks",
        "permlab_requestInstallPackages": "paigalduspakettide taotlemine",
        "permlab_requestPasswordComplexity": "ekraaniluku keerukuse taotlemine",
        "permlab_route_media_output": "meediaväljundi marsruutimine",
        "permlab_runInBackground": "taustal töötamine",
        "permlab_sdcardRead": "jagatud salvestusruumi sisu lugemine",
        "permlab_sdcardWrite": "jagatud salvestusruumi sisu muutmine või kustutamine",
        "permlab_sendSms": "saada ja vaata SMS-sõnumeid",
        "permlab_setAlarm": "määrake äratus",
        "permlab_setInputCalibration": "sisendseadme kalibreerimise muutmine",
        "permlab_setTimeZone": "seadista ajavöönd",
        "permlab_setWallpaper": "seadista taustapilt",
        "permlab_setWallpaperHints": "muuda taustapildi suurust",
        "permlab_sim_communication": "saada käske SIM-kaardile",
        "permlab_startViewPermissionUsage": "võta kasutusele vaatamisõigused",
        "permlab_statusBar": "keela või muuda olekuriba",
        "permlab_statusBarService": "saa olekuribaks",
        "permlab_subscribedFeedsRead": "loe tellitud uudisvoogusid",
        "permlab_systemAlertWindow": "See rakendus võib asuda teiste rakenduste peal",
        "permlab_systemCamera": "Rakendusel või teenusel lubatakse kasutada süsteemi kaameraid, et salvestada pilte ja videoid",
        "permlab_transmitIr": "saada andmeid infrapunaliidesega",
        "permlab_uninstall_shortcut": "eemalda otseteed",
        "permlab_useBiometric": "kasuta biomeetrilist riistvara",
        "permlab_useDataInBackground": "kasuta andmeid taustal",
        "permlab_useFaceAuthentication": "kasutada Face Unlocki riistvara",
        "permlab_useFingerprint": "kasuta sõrmejäljetuvastuse riistvara",
        "permlab_use_sip": "tee või võta vastu SIP-kõnesid",
        "permlab_uwb_ranging": "määrata lähedalasuvate ülilairibaühendust kasutavate seadmete suhtelise kauguse üksteisest",
        "permlab_vibrate": "kontrolli vibratsiooni",
        "permlab_videoWrite": "muuda oma videokogu",
        "permlab_wakeLock": "takista energiasäästurežiimi kasutamist",
        "permlab_writeCalendar": "lisa või muuda kalendrisündmusi ning saada külalistele e-posti teel kutseid ilma omaniku teadmata",
        "permlab_writeCallLog": "salvesta kõnede logi",
        "permlab_writeContacts": "muuda sinu kontakte",
        "permlab_writeGeolocationPermissions": "muuda brauseris määratud asukohatuvastuse õigusi",
        "permlab_writeHistoryBookmarks": "salvesta brauseri järjehoidjaid ning ajalugu",
        "permlab_writeSettings": "muuda süsteemi seadistusi",
        "permlab_writeSyncSettings": "lülita sünkroniseerimine sisse või välja"
    },
    "sidebars": {
        "donate": {
            "bank_transfer_name": "Nimi",
            "bitcoin_alt": "Kingi Bitcoini abil",
            "credit_card": "Krediitkaart",
            "crypto": "Krüptoraha",
            "currency": "Valuuta",
            "flattr_alt": "Kingi Flattr'i abil",
            "heading": "Anneta",
            "hellotux": "👕 T-särke 👕 pakub",
            "hellotux_alt": "HELLOTUX",
            "hellotux_donation": "F-Droid saab 3€ iga müüdud särgi kohta.",
            "liberapay_alt": "Kingi Liberapay abil",
            "litecoin_alt": "Kingi Litecoin'i abil",
            "more_options": "Täiendavad valikud",
            "opencollective_alt": "Kingi meie Collective'ile",
            "paypal": "PayPal",
            "paypal_alt": "Kingi PayPal'i abil",
            "powered_by_donations": "Sinu annetused hoiavad F-Droid'i töös!",
            "via_bank_transfer": "Pangaülekanne"
        },
        "lang": {
            "change": "Muuda"
        },
        "last_updated": {
            "heading": "Viimati uuendatud"
        },
        "latest_packages": {
            "heading": "Viimati lisatud"
        },
        "news": {
            "heading": "Uudised"
        },
        "search": {
            "heading": "Otsi rakendusi",
            "noscript": "Eeldab, et JavaScript on kasutusel",
            "search": "Otsi"
        }
    }
}
